8.1 Latent Dirichlet Allocation (LDA) | Introduction to Quantitative Text Analysis
…
To further explore the topic-word distributions, known as \(\beta\), and prepare them for visualization, we use the tidy() function from the tidytext package.
tidytext facilitates working with text data and model outputs in a “tidy” format, which is compatible with dplyr and ggplot2 for efficient data manipulation and visualization.

library(tidytext)  # Ensure tidytext is loaded
library(dplyr)  # Ensure dplyr is loaded
library(ggplot2)  # Ensure ggplot2 is loaded

# Tidy the LDA model output to get the topic-word probabilities (beta) The
# 'beta' matrix represents the probability of a word belonging to a topic.
inaugural_lda10_topics <- tidy(inaugural_lda10, matrix = "beta")

# Display the structure of the tidied beta output
print(inaugural_lda10_topics)

## # A tibble: 92,090 × 3
##    topic term                  beta
##    <int> <chr>                <dbl>
##  1     1 fellow-citizens 0.0000142 
##  2     2 fellow-citizens 0.000167  
##  3     3 fellow-citizens 0.0000233 
##  4     4 fellow-citizens 0.00000746
##  5     5 fellow-citizens 0.00124   
##  6     6 fellow-citizens 0.0000164 
##  7     7 fellow-citizens 0.0000181 
##  8     8 fellow-citizens 0.0000150 
##  9     9 fellow-citizens 0.00426   
## 10    10 fellow-citizens 0.00000728
## # ℹ 92,080 more rows
…
This plot provides a visual overview of the keywords that define each topic.
By examining these words, we can assign a meaningful label or interpretation to each discovered topic.
This step is crucial for understanding the thematic structure of the corpus.

Another important output of LDA is the document-topic distribution, known as \(\gamma\), which represents the proportion of each topic present in each document. This information allows us to identify which topics are most prominent in specific documents. We again use the tidy() function to extract this data in a convenient format.

# Tidy the LDA model output to get the document-topic probabilities (gamma) The
# 'gamma' matrix represents the proportion of each topic in each document.
inaugural_lda10_documents <- tidy(inaugural_lda10, matrix = "gamma")

# Display the structure of the tidied gamma output
print(inaugural_lda10_documents)

## # A tibble: 600 × 3
##    document        topic  gamma
##    <chr>           <int>  <dbl>
##  1 1789-Washington     1 0.0351
##  2 1793-Washington     1 0.0536
##  3 1797-Adams          1 0.0686
##  4 1801-Jefferson      1 0.0594
##  5 1805-Jefferson      1 0.0335
##  6 1809-Madison        1 0.0326
##  7 1813-Madison        1 0.0417
##  8 1817-Monroe         1 0.0159
##  9 1821-Monroe         1 0.0130
## 10 1825-Adams          1 0.0490
## # ℹ 590 more rows
…
We select a subset of documents to visualize their topic distributions.
This allows us to examine the topic proportions in individual documents and see how different topics contribute to the content of each document.

# Select a few documents to visualise (e.g., the first few)
selected_docs <- unique(inaugural_lda10_documents$document)[1:5] # Select the names of the first 5 unique documents.

# Filter the gamma data for selected documents and arrange
inaugural_lda10_selected_docs <- inaugural_lda10_documents %>%
  filter(document %in% selected_docs) %>% # Keep only the rows where the document name is in our selected_docs list.
  arrange(document, -gamma) # Arrange the data first by document name, then by gamma in descending order to easily see the most prominent topics per document.

# Show the structure of the selected documents' gamma data
print(inaugural_lda10_selected_docs)

## # A tibble: 50 × 3
##    document        topic  gamma
##    <chr>           <int>  <dbl>
##  1 1789-Washington    10 0.267 
##  2 1789-Washington     8 0.176 
##  3 1789-Washington     9 0.140 
##  4 1789-Washington     6 0.132 
##  5 1789-Washington     5 0.0674
##  6 1789-Washington     2 0.0548
##  7 1789-Washington     4 0.0463
##  8 1789-Washington     3 0.0407
##  9 1789-Washington     7 0.0407
## 10 1789-Washington     1 0.0351
## # ℹ 40 more rows
…
